3D fluorescence microscopy – reproducibility analysis using mixed-effects models
…
# data checks
df %>% count(Site)

## # A tibble: 4 × 2
##   Site      n
##   <chr> <int>
## 1 Crick  7892
## 2 ICR   10719
## 3 IGC    9828
## 4 IRB   20258

df %>% count(Site, Condition)

## # A tibble: 24 × 3
##    Site  Condition                          n
##    <chr> <chr>                          <int>
##  1 Crick 100 nM TPA +ve control          1499
##  2 Crick 20 nM Binimetinib               1452
##  3 Crick 200 nM Binimetinib              1238
##  4 Crick 3.5 µM Binimetinib -ve control  1324
##  5 Crick 60 nM Binimetinib               1158
##  6 Crick DMSO                            1221
##  7 ICR   100 nM TPA +ve control          1994
##  8 ICR   20 nM Binimetinib               1906
##  9 ICR   200 nM Binimetinib              1669
## 10 ICR   3.5 µM Binimetinib -ve control  1724
## # ℹ 14 more rows

df %>% count(Site, well)

## # A tibble: 96 × 3
##    Site  well      n
##    <chr> <chr> <int>
##  1 Crick B5      330
##  2 Crick B6      307
##  3 Crick B7      324
##  4 Crick B8      260
##  5 Crick C5      459
##  6 Crick C6      340
##  7 Crick C7      316
##  8 Crick C8      384
##  9 Crick D5      382
## 10 Crick D6      339
## # ℹ 86 more rows
…
